^C:\USERS\משתמש\TRIVIA\TRIVIA\SERVER\COMMUNICATOR.CPP|C:\USERS\משתמש\TRIVIA\TRIVIA\SERVER\GAME.CPP|C:\USERS\משתמש\TRIVIA\TRIVIA\SERVER\GAMEMANAGER.CPP|C:\USERS\משתמש\TRIVIA\TRIVIA\SERVER\GAMEREQUESTHANDLER.CPP|C:\USERS\משתמש\TRIVIA\TRIVIA\SERVER\HELPER.CPP|C:\USERS\משתמש\TRIVIA\TRIVIA\SERVER\JSONREQUESTPACKETDESERIALIZER.CPP|C:\USERS\משתמש\TRIVIA\TRIVIA\SERVER\JSONRESPONSEPACKETSERIALIZER.CPP|C:\USERS\משתמש\TRIVIA\TRIVIA\SERVER\LOGGEDUSER.CPP|C:\USERS\משתמש\TRIVIA\TRIVIA\SERVER\LOGINMANAGER.CPP|C:\USERS\משתמש\TRIVIA\TRIVIA\SERVER\LOGINREQUESTHANDLER.CPP|C:\USERS\משתמש\TRIVIA\TRIVIA\SERVER\MENUREQUESTHANDLER.CPP|C:\USERS\משתמש\TRIVIA\TRIVIA\SERVER\QUESTION.CPP|C:\USERS\משתמש\TRIVIA\TRIVIA\SERVER\REQUESTHANDLERFACTORY.CPP|C:\USERS\משתמש\TRIVIA\TRIVIA\SERVER\ROOM.CPP|C:\USERS\משתמש\TRIVIA\TRIVIA\SERVER\ROOMADMINREQUESTHANDLER.CPP|C:\USERS\משתמש\TRIVIA\TRIVIA\SERVER\ROOMMANAGER.CPP|C:\USERS\משתמש\TRIVIA\TRIVIA\SERVER\ROOMMEMBERREQUESTHANDLER.CPP|C:\USERS\משתמש\TRIVIA\TRIVIA\SERVER\SERVER.CPP|C:\USERS\משתמש\TRIVIA\TRIVIA\SERVER\SERVERMAIN.CPP|C:\USERS\משתמש\TRIVIA\TRIVIA\SERVER\SQLITEDATABASE.CPP|C:\USERS\משתמש\TRIVIA\TRIVIA\SERVER\STATISTICSMANAGER.CPP|C:\USERS\משתמש\TRIVIA\TRIVIA\SERVER\USER.CPP
C:\USERS\משתמש\TRIVIA\TRIVIA\SERVER\DEBUG\VC142.PDB
C:\USERS\משתמש\TRIVIA\TRIVIA\SERVER\DEBUG\VC142.IDB
C:\USERS\משתמש\TRIVIA\TRIVIA\SERVER\DEBUG\SQLITEDATABASE.OBJ
C:\USERS\משתמש\TRIVIA\TRIVIA\SERVER\DEBUG\SERVER.OBJ
C:\USERS\משתמש\TRIVIA\TRIVIA\SERVER\DEBUG\SERVERMAIN.OBJ
C:\USERS\משתמש\TRIVIA\TRIVIA\SERVER\DEBUG\ROOMMEMBERREQUESTHANDLER.OBJ
C:\USERS\משתמש\TRIVIA\TRIVIA\SERVER\DEBUG\ROOMMANAGER.OBJ
C:\USERS\משתמש\TRIVIA\TRIVIA\SERVER\DEBUG\ROOMADMINREQUESTHANDLER.OBJ
C:\USERS\משתמש\TRIVIA\TRIVIA\SERVER\DEBUG\ROOM.OBJ
C:\USERS\משתמש\TRIVIA\TRIVIA\SERVER\DEBUG\REQUESTHANDLERFACTORY.OBJ
C:\USERS\משתמש\TRIVIA\TRIVIA\SERVER\DEBUG\QUESTION.OBJ
C:\USERS\משתמש\TRIVIA\TRIVIA\SERVER\DEBUG\MENUREQUESTHANDLER.OBJ
C:\USERS\משתמש\TRIVIA\TRIVIA\SERVER\DEBUG\LOGINREQUESTHANDLER.OBJ
C:\USERS\משתמש\TRIVIA\TRIVIA\SERVER\DEBUG\LOGINMANAGER.OBJ
C:\USERS\משתמש\TRIVIA\TRIVIA\SERVER\DEBUG\LOGGEDUSER.OBJ
C:\USERS\משתמש\TRIVIA\TRIVIA\SERVER\DEBUG\JSONRESPONSEPACKETSERIALIZER.OBJ
C:\USERS\משתמש\TRIVIA\TRIVIA\SERVER\DEBUG\JSONREQUESTPACKETDESERIALIZER.OBJ
C:\USERS\משתמש\TRIVIA\TRIVIA\SERVER\DEBUG\HELPER.OBJ
C:\USERS\משתמש\TRIVIA\TRIVIA\SERVER\DEBUG\GAMEMANAGER.OBJ
C:\USERS\משתמש\TRIVIA\TRIVIA\SERVER\DEBUG\GAME.OBJ
C:\USERS\משתמש\TRIVIA\TRIVIA\SERVER\DEBUG\COMMUNICATOR.OBJ
C:\USERS\משתמש\TRIVIA\TRIVIA\SERVER\DEBUG\USER.OBJ
C:\USERS\משתמש\TRIVIA\TRIVIA\SERVER\DEBUG\STATISTICSMANAGER.OBJ
^C:\USERS\משתמש\TRIVIA\TRIVIA\SERVER\LOGGEDUSER.CPP
C:\USERS\משתמש\TRIVIA\TRIVIA\SERVER\DEBUG\LOGGEDUSER.OBJ
^C:\USERS\משתמש\TRIVIA\TRIVIA\SERVER\LOGINMANAGER.CPP
C:\USERS\משתמש\TRIVIA\TRIVIA\SERVER\DEBUG\LOGINMANAGER.OBJ
^C:\USERS\משתמש\TRIVIA\TRIVIA\SERVER\QUESTION.CPP
C:\USERS\משתמש\TRIVIA\TRIVIA\SERVER\DEBUG\QUESTION.OBJ
^C:\USERS\משתמש\TRIVIA\TRIVIA\SERVER\ROOM.CPP
C:\USERS\משתמש\TRIVIA\TRIVIA\SERVER\DEBUG\ROOM.OBJ
^C:\USERS\משתמש\TRIVIA\TRIVIA\SERVER\STATISTICSMANAGER.CPP
C:\USERS\משתמש\TRIVIA\TRIVIA\SERVER\DEBUG\STATISTICSMANAGER.OBJ
^C:\USERS\משתמש\TRIVIA\TRIVIA\SERVER\COMMUNICATOR.CPP|C:\USERS\משתמש\TRIVIA\TRIVIA\SERVER\GAME.CPP|C:\USERS\משתמש\TRIVIA\TRIVIA\SERVER\GAMEMANAGER.CPP|C:\USERS\משתמש\TRIVIA\TRIVIA\SERVER\GAMEREQUESTHANDLER.CPP|C:\USERS\משתמש\TRIVIA\TRIVIA\SERVER\HELPER.CPP|C:\USERS\משתמש\TRIVIA\TRIVIA\SERVER\JSONREQUESTPACKETDESERIALIZER.CPP|C:\USERS\משתמש\TRIVIA\TRIVIA\SERVER\JSONRESPONSEPACKETSERIALIZER.CPP|C:\USERS\משתמש\TRIVIA\TRIVIA\SERVER\LOGINREQUESTHANDLER.CPP|C:\USERS\משתמש\TRIVIA\TRIVIA\SERVER\MENUREQUESTHANDLER.CPP|C:\USERS\משתמש\TRIVIA\TRIVIA\SERVER\REQUESTHANDLERFACTORY.CPP|C:\USERS\משתמש\TRIVIA\TRIVIA\SERVER\ROOMADMINREQUESTHANDLER.CPP|C:\USERS\משתמש\TRIVIA\TRIVIA\SERVER\ROOMMANAGER.CPP|C:\USERS\משתמש\TRIVIA\TRIVIA\SERVER\ROOMMEMBERREQUESTHANDLER.CPP|C:\USERS\משתמש\TRIVIA\TRIVIA\SERVER\SERVER.CPP|C:\USERS\משתמש\TRIVIA\TRIVIA\SERVER\SERVERMAIN.CPP|C:\USERS\משתמש\TRIVIA\TRIVIA\SERVER\SQLITEDATABASE.CPP|C:\USERS\משתמש\TRIVIA\TRIVIA\SERVER\USER.CPP
C:\USERS\משתמש\TRIVIA\TRIVIA\SERVER\DEBUG\VC142.PDB
C:\USERS\משתמש\TRIVIA\TRIVIA\SERVER\DEBUG\VC142.IDB
C:\USERS\משתמש\TRIVIA\TRIVIA\SERVER\DEBUG\USER.OBJ
C:\USERS\משתמש\TRIVIA\TRIVIA\SERVER\DEBUG\SQLITEDATABASE.OBJ
C:\USERS\משתמש\TRIVIA\TRIVIA\SERVER\DEBUG\ROOMMANAGER.OBJ
C:\USERS\משתמש\TRIVIA\TRIVIA\SERVER\DEBUG\JSONRESPONSEPACKETSERIALIZER.OBJ
C:\USERS\משתמש\TRIVIA\TRIVIA\SERVER\DEBUG\HELPER.OBJ
C:\USERS\משתמש\TRIVIA\TRIVIA\SERVER\DEBUG\GAMEMANAGER.OBJ
C:\USERS\משתמש\TRIVIA\TRIVIA\SERVER\DEBUG\GAME.OBJ
^C:\USERS\משתמש\TRIVIA\TRIVIA\SERVER\COMMUNICATOR.CPP|C:\USERS\משתמש\TRIVIA\TRIVIA\SERVER\GAMEREQUESTHANDLER.CPP|C:\USERS\משתמש\TRIVIA\TRIVIA\SERVER\HELPER.CPP|C:\USERS\משתמש\TRIVIA\TRIVIA\SERVER\JSONREQUESTPACKETDESERIALIZER.CPP|C:\USERS\משתמש\TRIVIA\TRIVIA\SERVER\JSONRESPONSEPACKETSERIALIZER.CPP|C:\USERS\משתמש\TRIVIA\TRIVIA\SERVER\LOGINREQUESTHANDLER.CPP|C:\USERS\משתמש\TRIVIA\TRIVIA\SERVER\MENUREQUESTHANDLER.CPP|C:\USERS\משתמש\TRIVIA\TRIVIA\SERVER\REQUESTHANDLERFACTORY.CPP|C:\USERS\משתמש\TRIVIA\TRIVIA\SERVER\ROOMADMINREQUESTHANDLER.CPP|C:\USERS\משתמש\TRIVIA\TRIVIA\SERVER\ROOMMANAGER.CPP|C:\USERS\משתמש\TRIVIA\TRIVIA\SERVER\ROOMMEMBERREQUESTHANDLER.CPP|C:\USERS\משתמש\TRIVIA\TRIVIA\SERVER\SERVER.CPP|C:\USERS\משתמש\TRIVIA\TRIVIA\SERVER\SERVERMAIN.CPP|C:\USERS\משתמש\TRIVIA\TRIVIA\SERVER\SQLITEDATABASE.CPP|C:\USERS\משתמש\TRIVIA\TRIVIA\SERVER\USER.CPP
C:\USERS\משתמש\TRIVIA\TRIVIA\SERVER\DEBUG\VC142.PDB
C:\USERS\משתמש\TRIVIA\TRIVIA\SERVER\DEBUG\VC142.IDB
C:\USERS\משתמש\TRIVIA\TRIVIA\SERVER\DEBUG\USER.OBJ
C:\USERS\משתמש\TRIVIA\TRIVIA\SERVER\DEBUG\SQLITEDATABASE.OBJ
C:\USERS\משתמש\TRIVIA\TRIVIA\SERVER\DEBUG\ROOMMANAGER.OBJ
C:\USERS\משתמש\TRIVIA\TRIVIA\SERVER\DEBUG\JSONRESPONSEPACKETSERIALIZER.OBJ
C:\USERS\משתמש\TRIVIA\TRIVIA\SERVER\DEBUG\HELPER.OBJ
^C:\USERS\משתמש\TRIVIA\TRIVIA\SERVER\HELPER.CPP
C:\USERS\משתמש\TRIVIA\TRIVIA\SERVER\DEBUG\HELPER.OBJ
^C:\USERS\משתמש\TRIVIA\TRIVIA\SERVER\COMMUNICATOR.CPP|C:\USERS\משתמש\TRIVIA\TRIVIA\SERVER\GAMEREQUESTHANDLER.CPP|C:\USERS\משתמש\TRIVIA\TRIVIA\SERVER\JSONREQUESTPACKETDESERIALIZER.CPP|C:\USERS\משתמש\TRIVIA\TRIVIA\SERVER\JSONRESPONSEPACKETSERIALIZER.CPP|C:\USERS\משתמש\TRIVIA\TRIVIA\SERVER\LOGINREQUESTHANDLER.CPP|C:\USERS\משתמש\TRIVIA\TRIVIA\SERVER\MENUREQUESTHANDLER.CPP|C:\USERS\משתמש\TRIVIA\TRIVIA\SERVER\REQUESTHANDLERFACTORY.CPP|C:\USERS\משתמש\TRIVIA\TRIVIA\SERVER\ROOMADMINREQUESTHANDLER.CPP|C:\USERS\משתמש\TRIVIA\TRIVIA\SERVER\ROOMMANAGER.CPP|C:\USERS\משתמש\TRIVIA\TRIVIA\SERVER\ROOMMEMBERREQUESTHANDLER.CPP|C:\USERS\משתמש\TRIVIA\TRIVIA\SERVER\SERVER.CPP|C:\USERS\משתמש\TRIVIA\TRIVIA\SERVER\SERVERMAIN.CPP|C:\USERS\משתמש\TRIVIA\TRIVIA\SERVER\SQLITEDATABASE.CPP|C:\USERS\משתמש\TRIVIA\TRIVIA\SERVER\USER.CPP
C:\USERS\משתמש\TRIVIA\TRIVIA\SERVER\DEBUG\VC142.PDB
C:\USERS\משתמש\TRIVIA\TRIVIA\SERVER\DEBUG\VC142.IDB
C:\USERS\משתמש\TRIVIA\TRIVIA\SERVER\DEBUG\USER.OBJ
C:\USERS\משתמש\TRIVIA\TRIVIA\SERVER\DEBUG\SQLITEDATABASE.OBJ
C:\USERS\משתמש\TRIVIA\TRIVIA\SERVER\DEBUG\SERVER.OBJ
C:\USERS\משתמש\TRIVIA\TRIVIA\SERVER\DEBUG\SERVERMAIN.OBJ
C:\USERS\משתמש\TRIVIA\TRIVIA\SERVER\DEBUG\ROOMMEMBERREQUESTHANDLER.OBJ
C:\USERS\משתמש\TRIVIA\TRIVIA\SERVER\DEBUG\ROOMMANAGER.OBJ
C:\USERS\משתמש\TRIVIA\TRIVIA\SERVER\DEBUG\ROOMADMINREQUESTHANDLER.OBJ
C:\USERS\משתמש\TRIVIA\TRIVIA\SERVER\DEBUG\REQUESTHANDLERFACTORY.OBJ
C:\USERS\משתמש\TRIVIA\TRIVIA\SERVER\DEBUG\MENUREQUESTHANDLER.OBJ
C:\USERS\משתמש\TRIVIA\TRIVIA\SERVER\DEBUG\LOGINREQUESTHANDLER.OBJ
C:\USERS\משתמש\TRIVIA\TRIVIA\SERVER\DEBUG\JSONRESPONSEPACKETSERIALIZER.OBJ
C:\USERS\משתמש\TRIVIA\TRIVIA\SERVER\DEBUG\JSONREQUESTPACKETDESERIALIZER.OBJ
C:\USERS\משתמש\TRIVIA\TRIVIA\SERVER\DEBUG\COMMUNICATOR.OBJ
^C:\USERS\משתמש\TRIVIA\TRIVIA\SERVER\JSONRESPONSEPACKETSERIALIZER.CPP
C:\USERS\משתמש\TRIVIA\TRIVIA\SERVER\DEBUG\JSONRESPONSEPACKETSERIALIZER.OBJ
^C:\USERS\משתמש\TRIVIA\TRIVIA\SERVER\ROOMMANAGER.CPP
C:\USERS\משתמש\TRIVIA\TRIVIA\SERVER\DEBUG\ROOMMANAGER.OBJ
^C:\USERS\משתמש\TRIVIA\TRIVIA\SERVER\SQLITEDATABASE.CPP
C:\USERS\משתמש\TRIVIA\TRIVIA\SERVER\DEBUG\SQLITEDATABASE.OBJ
^C:\USERS\משתמש\TRIVIA\TRIVIA\SERVER\GAMEREQUESTHANDLER.CPP|C:\USERS\משתמש\TRIVIA\TRIVIA\SERVER\JSONREQUESTPACKETDESERIALIZER.CPP|C:\USERS\משתמש\TRIVIA\TRIVIA\SERVER\USER.CPP
C:\USERS\משתמש\TRIVIA\TRIVIA\SERVER\DEBUG\VC142.PDB
C:\USERS\משתמש\TRIVIA\TRIVIA\SERVER\DEBUG\VC142.IDB
C:\USERS\משתמש\TRIVIA\TRIVIA\SERVER\DEBUG\USER.OBJ
C:\USERS\משתמש\TRIVIA\TRIVIA\SERVER\DEBUG\JSONREQUESTPACKETDESERIALIZER.OBJ
C:\USERS\משתמש\TRIVIA\TRIVIA\SERVER\DEBUG\GAMEREQUESTHANDLER.OBJ
^C:\USERS\משתמש\TRIVIA\TRIVIA\SERVER\JSONREQUESTPACKETDESERIALIZER.CPP
C:\USERS\משתמש\TRIVIA\TRIVIA\SERVER\DEBUG\VC142.PDB
^C:\USERS\משתמש\TRIVIA\TRIVIA\SERVER\USER.CPP
C:\USERS\משתמש\TRIVIA\TRIVIA\SERVER\DEBUG\VC142.PDB
^C:\USERS\משתמש\TRIVIA\TRIVIA\SERVER\SQLITE3.C
C:\USERS\משתמש\TRIVIA\TRIVIA\SERVER\DEBUG\VC142.PDB
C:\USERS\משתמש\TRIVIA\TRIVIA\SERVER\DEBUG\VC142.IDB
C:\USERS\משתמש\TRIVIA\TRIVIA\SERVER\DEBUG\SQLITE3.OBJ
^C:\USERS\משתמש\TRIVIA\TRIVIA\SERVER\COMMUNICATOR.CPP|C:\USERS\משתמש\TRIVIA\TRIVIA\SERVER\GAME.CPP|C:\USERS\משתמש\TRIVIA\TRIVIA\SERVER\GAMEMANAGER.CPP|C:\USERS\משתמש\TRIVIA\TRIVIA\SERVER\GAMEREQUESTHANDLER.CPP|C:\USERS\משתמש\TRIVIA\TRIVIA\SERVER\LOGINREQUESTHANDLER.CPP|C:\USERS\משתמש\TRIVIA\TRIVIA\SERVER\MENUREQUESTHANDLER.CPP|C:\USERS\משתמש\TRIVIA\TRIVIA\SERVER\REQUESTHANDLERFACTORY.CPP|C:\USERS\משתמש\TRIVIA\TRIVIA\SERVER\ROOMADMINREQUESTHANDLER.CPP|C:\USERS\משתמש\TRIVIA\TRIVIA\SERVER\ROOMMEMBERREQUESTHANDLER.CPP|C:\USERS\משתמש\TRIVIA\TRIVIA\SERVER\SERVER.CPP|C:\USERS\משתמש\TRIVIA\TRIVIA\SERVER\SERVERMAIN.CPP
C:\USERS\משתמש\TRIVIA\TRIVIA\SERVER\DEBUG\VC142.PDB
C:\USERS\משתמש\TRIVIA\TRIVIA\SERVER\DEBUG\VC142.IDB
C:\USERS\משתמש\TRIVIA\TRIVIA\SERVER\DEBUG\GAMEMANAGER.OBJ
C:\USERS\משתמש\TRIVIA\TRIVIA\SERVER\DEBUG\GAME.OBJ
^C:\USERS\משתמש\TRIVIA\TRIVIA\SERVER\GAME.CPP
C:\USERS\משתמש\TRIVIA\TRIVIA\SERVER\DEBUG\GAME.OBJ
^C:\USERS\משתמש\TRIVIA\TRIVIA\SERVER\GAMEMANAGER.CPP
C:\USERS\משתמש\TRIVIA\TRIVIA\SERVER\DEBUG\GAMEMANAGER.OBJ
^C:\USERS\משתמש\TRIVIA\TRIVIA\SERVER\COMMUNICATOR.CPP|C:\USERS\משתמש\TRIVIA\TRIVIA\SERVER\GAMEREQUESTHANDLER.CPP|C:\USERS\משתמש\TRIVIA\TRIVIA\SERVER\LOGINREQUESTHANDLER.CPP|C:\USERS\משתמש\TRIVIA\TRIVIA\SERVER\MENUREQUESTHANDLER.CPP|C:\USERS\משתמש\TRIVIA\TRIVIA\SERVER\REQUESTHANDLERFACTORY.CPP|C:\USERS\משתמש\TRIVIA\TRIVIA\SERVER\ROOMADMINREQUESTHANDLER.CPP|C:\USERS\משתמש\TRIVIA\TRIVIA\SERVER\ROOMMEMBERREQUESTHANDLER.CPP|C:\USERS\משתמש\TRIVIA\TRIVIA\SERVER\SERVER.CPP|C:\USERS\משתמש\TRIVIA\TRIVIA\SERVER\SERVERMAIN.CPP
C:\USERS\משתמש\TRIVIA\TRIVIA\SERVER\DEBUG\VC142.PDB
C:\USERS\משתמש\TRIVIA\TRIVIA\SERVER\DEBUG\VC142.IDB
C:\USERS\משתמש\TRIVIA\TRIVIA\SERVER\DEBUG\SERVER.OBJ
C:\USERS\משתמש\TRIVIA\TRIVIA\SERVER\DEBUG\SERVERMAIN.OBJ
C:\USERS\משתמש\TRIVIA\TRIVIA\SERVER\DEBUG\ROOMMEMBERREQUESTHANDLER.OBJ
C:\USERS\משתמש\TRIVIA\TRIVIA\SERVER\DEBUG\ROOMADMINREQUESTHANDLER.OBJ
C:\USERS\משתמש\TRIVIA\TRIVIA\SERVER\DEBUG\REQUESTHANDLERFACTORY.OBJ
C:\USERS\משתמש\TRIVIA\TRIVIA\SERVER\DEBUG\MENUREQUESTHANDLER.OBJ
C:\USERS\משתמש\TRIVIA\TRIVIA\SERVER\DEBUG\LOGINREQUESTHANDLER.OBJ
C:\USERS\משתמש\TRIVIA\TRIVIA\SERVER\DEBUG\GAMEREQUESTHANDLER.OBJ
C:\USERS\משתמש\TRIVIA\TRIVIA\SERVER\DEBUG\COMMUNICATOR.OBJ
^C:\USERS\משתמש\TRIVIA\TRIVIA\SERVER\COMMUNICATOR.CPP
C:\USERS\משתמש\TRIVIA\TRIVIA\SERVER\DEBUG\VC142.PDB
^C:\USERS\משתמש\TRIVIA\TRIVIA\SERVER\GAMEREQUESTHANDLER.CPP
C:\USERS\משתמש\TRIVIA\TRIVIA\SERVER\DEBUG\VC142.PDB
^C:\USERS\משתמש\TRIVIA\TRIVIA\SERVER\LOGINREQUESTHANDLER.CPP
C:\USERS\משתמש\TRIVIA\TRIVIA\SERVER\DEBUG\VC142.PDB
^C:\USERS\משתמש\TRIVIA\TRIVIA\SERVER\MENUREQUESTHANDLER.CPP
C:\USERS\משתמש\TRIVIA\TRIVIA\SERVER\DEBUG\VC142.PDB
^C:\USERS\משתמש\TRIVIA\TRIVIA\SERVER\REQUESTHANDLERFACTORY.CPP
C:\USERS\משתמש\TRIVIA\TRIVIA\SERVER\DEBUG\VC142.PDB
^C:\USERS\משתמש\TRIVIA\TRIVIA\SERVER\ROOMADMINREQUESTHANDLER.CPP
C:\USERS\משתמש\TRIVIA\TRIVIA\SERVER\DEBUG\VC142.PDB
^C:\USERS\משתמש\TRIVIA\TRIVIA\SERVER\ROOMMEMBERREQUESTHANDLER.CPP
C:\USERS\משתמש\TRIVIA\TRIVIA\SERVER\DEBUG\VC142.PDB
^C:\USERS\משתמש\TRIVIA\TRIVIA\SERVER\SERVERMAIN.CPP
C:\USERS\משתמש\TRIVIA\TRIVIA\SERVER\DEBUG\VC142.PDB
^C:\USERS\משתמש\TRIVIA\TRIVIA\SERVER\SERVER.CPP
C:\USERS\משתמש\TRIVIA\TRIVIA\SERVER\DEBUG\VC142.PDB
