^C:\USERS\משתמש\TRIVIA\TRIVIA\SERVER\DEBUG\COMMUNICATOR.OBJ|C:\USERS\משתמש\TRIVIA\TRIVIA\SERVER\DEBUG\GAME.OBJ|C:\USERS\משתמש\TRIVIA\TRIVIA\SERVER\DEBUG\GAMEMANAGER.OBJ|C:\USERS\משתמש\TRIVIA\TRIVIA\SERVER\DEBUG\GAMEREQUESTHANDLER.OBJ|C:\USERS\משתמש\TRIVIA\TRIVIA\SERVER\DEBUG\HELPER.OBJ|C:\USERS\משתמש\TRIVIA\TRIVIA\SERVER\DEBUG\JSONREQUESTPACKETDESERIALIZER.OBJ|C:\USERS\משתמש\TRIVIA\TRIVIA\SERVER\DEBUG\JSONRESPONSEPACKETSERIALIZER.OBJ|C:\USERS\משתמש\TRIVIA\TRIVIA\SERVER\DEBUG\LOGGEDUSER.OBJ|C:\USERS\משתמש\TRIVIA\TRIVIA\SERVER\DEBUG\LOGINMANAGER.OBJ|C:\USERS\משתמש\TRIVIA\TRIVIA\SERVER\DEBUG\LOGINREQUESTHANDLER.OBJ|C:\USERS\משתמש\TRIVIA\TRIVIA\SERVER\DEBUG\MENUREQUESTHANDLER.OBJ|C:\USERS\משתמש\TRIVIA\TRIVIA\SERVER\DEBUG\QUESTION.OBJ|C:\USERS\משתמש\TRIVIA\TRIVIA\SERVER\DEBUG\REQUESTHANDLERFACTORY.OBJ|C:\USERS\משתמש\TRIVIA\TRIVIA\SERVER\DEBUG\ROOM.OBJ|C:\USERS\משתמש\TRIVIA\TRIVIA\SERVER\DEBUG\ROOMADMINREQUESTHANDLER.OBJ|C:\USERS\משתמש\TRIVIA\TRIVIA\SERVER\DEBUG\ROOMMANAGER.OBJ|C:\USERS\משתמש\TRIVIA\TRIVIA\SERVER\DEBUG\ROOMMEMBERREQUESTHANDLER.OBJ|C:\USERS\משתמש\TRIVIA\TRIVIA\SERVER\DEBUG\SERVER.OBJ|C:\USERS\משתמש\TRIVIA\TRIVIA\SERVER\DEBUG\SERVERMAIN.OBJ|C:\USERS\משתמש\TRIVIA\TRIVIA\SERVER\DEBUG\SQLITE3.OBJ|C:\USERS\משתמש\TRIVIA\TRIVIA\SERVER\DEBUG\SQLITEDATABASE.OBJ|C:\USERS\משתמש\TRIVIA\TRIVIA\SERVER\DEBUG\STATISTICSMANAGER.OBJ|C:\USERS\משתמש\TRIVIA\TRIVIA\SERVER\DEBUG\USER.OBJ
/OUT:"C:\USERS\משתמש\TRIVIA\TRIVIA\DEBUG\SERVER.EXE" /INCREMENTAL /NOLOGO KERNEL32.LIB USER32.LIB GDI32.LIB WINSPOOL.LIB COMDLG32.LIB ADVAPI32.LIB SHELL32.LIB OLE32.LIB OLEAUT32.LIB UUID.LIB ODBC32.LIB ODBCCP32.LIB /MANIFEST /MANIFESTUAC:"level='asInvoker' uiAccess='false'" /manifest:embed /DEBUG:FASTLINK /PDB:"C:\USERS\משתמש\TRIVIA\TRIVIA\DEBUG\SERVER.PDB" /SUBSYSTEM:CONSOLE /TLBID:1 /DYNAMICBASE /NXCOMPAT /IMPLIB:"C:\USERS\משתמש\TRIVIA\TRIVIA\DEBUG\SERVER.LIB" /MACHINE:X86 DEBUG\COMMUNICATOR.OBJ
DEBUG\GAME.OBJ
DEBUG\GAMEMANAGER.OBJ
DEBUG\GAMEREQUESTHANDLER.OBJ
DEBUG\HELPER.OBJ
DEBUG\JSONREQUESTPACKETDESERIALIZER.OBJ
DEBUG\JSONRESPONSEPACKETSERIALIZER.OBJ
DEBUG\LOGGEDUSER.OBJ
DEBUG\LOGINMANAGER.OBJ
DEBUG\LOGINREQUESTHANDLER.OBJ
DEBUG\MENUREQUESTHANDLER.OBJ
DEBUG\QUESTION.OBJ
DEBUG\REQUESTHANDLERFACTORY.OBJ
DEBUG\ROOM.OBJ
DEBUG\ROOMADMINREQUESTHANDLER.OBJ
DEBUG\ROOMMANAGER.OBJ
DEBUG\ROOMMEMBERREQUESTHANDLER.OBJ
DEBUG\SERVERMAIN.OBJ
DEBUG\SERVER.OBJ
DEBUG\SQLITE3.OBJ
DEBUG\SQLITEDATABASE.OBJ
DEBUG\STATISTICSMANAGER.OBJ
DEBUG\USER.OBJ
